Chapter 2 Primers | Environmental Systems Data Science
…
# set working directory
setwd("~/Documents/ETH/ESDS")

Now, we can try to load a data set which is save in our data folder and can be accesses using the relative path below.

# use a relative path to read the data
df <- read_csv("./data/FLX_CH-Lae_FLUXNET2015_FULLSET_HH_2004-2014_1-3.csv")
print(df) # to print an overview of the data frame

## # A tibble: 192,864 x 235
##    TIMESTAMP_START TIMESTAMP_END TA_F_MDS TA_F_MDS_QC TA_ERA  TA_F TA_F_QC
##              <dbl>         <dbl>    <dbl>       <dbl>  <dbl> <dbl>   <dbl>
##  1    200401010000  200401010030    -9999       -9999  -2.22 -2.22       2
##  2    200401010030  200401010100    -9999       -9999  -2.25 -2.25       2
##  3    200401010100  200401010130    -9999       -9999  -2.28 -2.28       2
##  4    200401010130  200401010200    -9999       -9999  -2.50 -2.50       2
##  5    200401010200  200401010230    -9999       -9999  -2.72 -2.72       2
##  6    200401010230  200401010300    -9999       -9999  -2.94 -2.94       2
##  7    200401010300  200401010330    -9999       -9999  -3.17 -3.17       2
##  8    200401010330  200401010400    -9999       -9999  -3.39 -3.39       2
##  9    200401010400  200401010430    -9999       -9999  -3.61 -3.61       2
## 10    200401010430  200401010500    -9999       -9999  -3.59 -3.59       2
## # … with 192,854 more rows, and 228 more variables: SW_IN_POT <dbl>,
## #   SW_IN_F_MDS <dbl>, SW_IN_F_MDS_QC <dbl>, SW_IN_ERA <dbl>, SW_IN_F <dbl>,
## #   SW_IN_F_QC <dbl>, LW_IN_F_MDS <dbl>, LW_IN_F_MDS_QC <dbl>, LW_IN_ERA <dbl>,
## #   LW_IN_F <dbl>, LW_IN_F_QC <dbl>, LW_IN_JSB <dbl>, LW_IN_JSB_QC <dbl>,
## #   LW_IN_JSB_ERA <dbl>, LW_IN_JSB_F <dbl>, LW_IN_JSB_F_QC <dbl>,
## #   VPD_F_MDS <dbl>, VPD_F_MDS_QC <dbl>, VPD_ERA <dbl>, VPD_F <dbl>,
## #   VPD_F_QC <dbl>, PA <dbl>, PA_ERA <dbl>, PA_F <dbl>, PA_F_QC <dbl>, P <dbl>,
## #   P_ERA <dbl>, P_F <dbl>, P_F_QC <dbl>, WS <dbl>, WS_ERA <dbl>, WS_F <dbl>,
## #   WS_F_QC <dbl>, WD <dbl>, USTAR <dbl>, RH <dbl>, PPFD_IN <dbl>,
…
TS (deg C): soil temperature

CO2 (\(\mu\)molCO2 mol\(^{-1}\)): Carbon Dioxide (CO\(_2\)) mole fraction in moist air

2.2.4.2 Selecting data and entering the tidyverse

df has two dimensions (rows and columns). If we want to extract specific data from it, we need to specify the “coordinates” of this data. Row numbers come first, columns second so essentially df[rows,columns].

By specifiying df[1] the first column of a data frame (tibble) is output.

# Selecting data in base R  ================================
df[1] 

## # A tibble: 192,864 x 1
##    TIMESTAMP_START
##              <dbl>
##  1    200401010000
##  2    200401010030
##  3    200401010100
##  4    200401010130
##  5    200401010200
##  6    200401010230
##  7    200401010300
##  8    200401010330
##  9    200401010400
## 10    200401010430
## # … with 192,854 more rows

If the first row and column of a data frame (tibble) are required, df[1,1] will do this. The first number in the bracket gives the desired row number, the number after the comma gives the column number.

df[1, 1] 

## # A tibble: 1 x 1
##   TIMESTAMP_START
##             <dbl>
## 1    200401010000

Reducing a data frame (tibble) to only the first column can be done as shown below or equivalently using df[1].

df[, 1]

## # A tibble: 192,864 x 1
##    TIMESTAMP_START
##              <dbl>
##  1    200401010000
##  2    200401010030
##  3    200401010100
##  4    200401010130
##  5    200401010200
##  6    200401010230
##  7    200401010300
##  8    200401010330
##  9    200401010400
## 10    200401010430
## # … with 192,854 more rows
…
df[1:3, 3] # reduces the data frame (tibble) to its first three rows and the 3rd column

## # A tibble: 3 x 1
##   TA_F_MDS
##      <dbl>
## 1    -9999
## 2    -9999
## 3    -9999

To reduce the data frame (tibble) to several columns, the function c() is used. c() stands for concatenate, which means to link together in a series or chain. This outputs the data frame (tibble) reduced to the selected row or column numbers inside c().

df[, c(1,4,7)]

## # A tibble: 192,864 x 3
##    TIMESTAMP_START TA_F_MDS_QC TA_F_QC
##              <dbl>       <dbl>   <dbl>
##  1    200401010000       -9999       2
##  2    200401010030       -9999       2
##  3    200401010100       -9999       2
##  4    200401010130       -9999       2
##  5    200401010200       -9999       2
##  6    200401010230       -9999       2
##  7    200401010300       -9999       2
##  8    200401010330       -9999       2
##  9    200401010400       -9999       2
## 10    200401010430       -9999       2
## # … with 192,854 more rows
…
Another method is to select the columns by column names, i.e. giving as input a string vector with the name of each column we want to select (again, this is Base R notation). This is especially useful if the columns we want to select are not contiguous. For example:

# Selecting data by name in base R  ================================
df[,c("TIMESTAMP_START", "TIMESTAMP_END", "TA_F_MDS", "TA_F_MDS_QC")]

## # A tibble: 192,864 x 4
##    TIMESTAMP_START TIMESTAMP_END TA_F_MDS TA_F_MDS_QC
##              <dbl>         <dbl>    <dbl>       <dbl>
##  1    200401010000  200401010030    -9999       -9999
##  2    200401010030  200401010100    -9999       -9999
##  3    200401010100  200401010130    -9999       -9999
##  4    200401010130  200401010200    -9999       -9999
##  5    200401010200  200401010230    -9999       -9999
##  6    200401010230  200401010300    -9999       -9999
##  7    200401010300  200401010330    -9999       -9999
##  8    200401010330  200401010400    -9999       -9999
##  9    200401010400  200401010430    -9999       -9999
## 10    200401010430  200401010500    -9999       -9999
## # … with 192,854 more rows

In this tutorial, we will use the tidyverse, which is a set of R packages designed for working with tidy data and writing code in such a way as to emphasize and better understand the “workflow aspect” of it. A code chunk which does the same as above, but is written for the tidyverse can read as follows.

select(df, 1) # reduces the data frame (tibble) to its first column

## # A tibble: 192,864 x 1
##    TIMESTAMP_START
##              <dbl>
##  1    200401010000
##  2    200401010030
##  3    200401010100
##  4    200401010130
##  5    200401010200
##  6    200401010230
##  7    200401010300
##  8    200401010330
##  9    200401010400
## 10    200401010430
## # … with 192,854 more rows

select(df, TIMESTAMP_START, TIMESTAMP_END, TA_F_MDS, TA_F_MDS_QC)  # reduces the data frame to columns specified by names

## # A tibble: 192,864 x 4
##    TIMESTAMP_START TIMESTAMP_END TA_F_MDS TA_F_MDS_QC
##              <dbl>         <dbl>    <dbl>       <dbl>
##  1    200401010000  200401010030    -9999       -9999
##  2    200401010030  200401010100    -9999       -9999
##  3    200401010100  200401010130    -9999       -9999
##  4    200401010130  200401010200    -9999       -9999
##  5    200401010200  200401010230    -9999       -9999
##  6    200401010230  200401010300    -9999       -9999
##  7    200401010300  200401010330    -9999       -9999
##  8    200401010330  200401010400    -9999       -9999
##  9    200401010400  200401010430    -9999       -9999
## 10    200401010430  200401010500    -9999       -9999
## # … with 192,854 more rows

As a further shortcut in tidyverse, we can use the pipe %>% operator. The data frame is still reduced to its first column:

df %>% select(1)

## # A tibble: 192,864 x 1
##    TIMESTAMP_START
##              <dbl>
##  1    200401010000
##  2    200401010030
##  3    200401010100
##  4    200401010130
##  5    200401010200
##  6    200401010230
##  7    200401010300
##  8    200401010330
##  9    200401010400
## 10    200401010430
## # … with 192,854 more rows
…
