Chapter 3 Data wrangling | Environmental Systems Data Science
…
After learning about some basic concepts and functions for data wrangling and visualisation, let’s get our hands on the data. As in previous exercises, we’ll be using the time series data from eddy covariance flux measurements and meteorological variables measured in parallel. In this sub-section, we start with half-hourly data from a flux tower near Zürich (CH-Lae, located on the Lägern mountain between Regensberg and Baden and run by our colleagues here at ETH). The data covers years 2004-2014 at a half-hourly time step. That’s a lot of data and will most likely drive Excel to desperation. That’s ok. In this course, you’ll learn to do your data wrangling fully outside of Excel and you’ll see how it improves your life as a (data) scientist considerably.

Every research project starts with a broad overall question. In this course, we are guided by the question about the variations and controls of ecosystem-level gross primary production (GPP). GPP is the gross carbon assimilation by photosynthesis of all plants in the “footprint” of an eddy covariance tower and can be derived from the measurement of the vertical turbulent net flux of CO2 (on the basis of vertical air movement and parallel CO2 concentration measurements). “Gross” because plants simultaneously respire CO2 as they assimilate it and this also during the night. Several assumptions have to be made to get to the final GPP time series. In our dataset, different GPP time series are available and are derived using different assumptions. Below, we’ll work with the one called GPP_NT_VUT_REF.

Now that we roughly know what to expect from the contents of our dataset and we have a research question in mind (controls and variations of GPP), we can start searching for answers by reading, transforming, visualising, and modelling our data. Based on what we learn from this initial exploratory data analysis, we will refine our research question, focus it, and follow it up with the next level of data analysis and modelling in later chapters.

3.1.1.1 Variables in a data frame

Let’s read in the half-hourly data from the eddy-covariance site CH-Lae again (as we did already in Chapter 1) and have a quick look at it. We use the function read_csv() from the readr package here for reading the CSV since it’s faster than the base-R read.csv() and generates a nicely readable output when printing the object. You can find more information about reading data with read_csv() here.

library(tidyverse)
hhdf <- read_csv("./data/FLX_CH-Lae_FLUXNET2015_FULLSET_HH_2004-2014_1-3.csv")
hhdf

## # A tibble: 192,864 x 235
##    TIMESTAMP_START TIMESTAMP_END TA_F_MDS TA_F_MDS_QC TA_ERA  TA_F TA_F_QC
##              <dbl>         <dbl>    <dbl>       <dbl>  <dbl> <dbl>   <dbl>
##  1    200401010000  200401010030    -9999       -9999  -2.22 -2.22       2
##  2    200401010030  200401010100    -9999       -9999  -2.25 -2.25       2
##  3    200401010100  200401010130    -9999       -9999  -2.28 -2.28       2
##  4    200401010130  200401010200    -9999       -9999  -2.50 -2.50       2
##  5    200401010200  200401010230    -9999       -9999  -2.72 -2.72       2
##  6    200401010230  200401010300    -9999       -9999  -2.94 -2.94       2
##  7    200401010300  200401010330    -9999       -9999  -3.17 -3.17       2
##  8    200401010330  200401010400    -9999       -9999  -3.39 -3.39       2
##  9    200401010400  200401010430    -9999       -9999  -3.61 -3.61       2
## 10    200401010430  200401010500    -9999       -9999  -3.59 -3.59       2
## # … with 192,854 more rows, and 228 more variables: SW_IN_POT <dbl>,
## #   SW_IN_F_MDS <dbl>, SW_IN_F_MDS_QC <dbl>, SW_IN_ERA <dbl>, SW_IN_F <dbl>,
## #   SW_IN_F_QC <dbl>, LW_IN_F_MDS <dbl>, LW_IN_F_MDS_QC <dbl>, LW_IN_ERA <dbl>,
## #   LW_IN_F <dbl>, LW_IN_F_QC <dbl>, LW_IN_JSB <dbl>, LW_IN_JSB_QC <dbl>,
## #   LW_IN_JSB_ERA <dbl>, LW_IN_JSB_F <dbl>, LW_IN_JSB_F_QC <dbl>,
## #   VPD_F_MDS <dbl>, VPD_F_MDS_QC <dbl>, VPD_ERA <dbl>, VPD_F <dbl>,
## #   VPD_F_QC <dbl>, PA <dbl>, PA_ERA <dbl>, PA_F <dbl>, PA_F_QC <dbl>, P <dbl>,
## #   P_ERA <dbl>, P_F <dbl>, P_F_QC <dbl>, WS <dbl>, WS_ERA <dbl>, WS_F <dbl>,
## #   WS_F_QC <dbl>, WD <dbl>, USTAR <dbl>, RH <dbl>, PPFD_IN <dbl>,
…
We haven’t applied the conversion of the timestamp columns to date-time objects in our data frame hhdf yet. In base-R, with the package lubridate loaded, we would do this by:

hhdf$TIMESTAMP_START <- ymd_hm(hhdf$TIMESTAMP_START)

Modifying existing or creating new variables (columns) in a data frame is done in the tidyverse using the function mutate().

hhdf %>%
  mutate(TIMESTAMP_START = ymd_hm(TIMESTAMP_START))

Of course, mutating both our timestamp variables could be written as mutate(TIMESTAMP_START = ymd_hm(TIMESTAMP_START), TIMESTAMP_END = ymd_hm(TIMESTAMP_END)). Sometimes, such multiple-variable mutate statements can get quite long. A nice short version of this can be implemented using mutate_at() which applies a condition to the variable name on which the mutating is to be done:

hhdf %>% 
  mutate_at(vars(starts_with("TIMESTAMP_")), ymd_hm)

## # A tibble: 192,864 x 65
##    TIMESTAMP_START     TIMESTAMP_END        TA_F SW_IN_F LW_IN_F VPD_F  PA_F
##    <dttm>              <dttm>              <dbl>   <dbl>   <dbl> <dbl> <dbl>
##  1 2004-01-01 00:00:00 2004-01-01 00:30:00 -2.22       0    304. 0.562  93.3
##  2 2004-01-01 00:30:00 2004-01-01 01:00:00 -2.25       0    304. 0.56   93.3
##  3 2004-01-01 01:00:00 2004-01-01 01:30:00 -2.28       0    281. 0.558  93.3
##  4 2004-01-01 01:30:00 2004-01-01 02:00:00 -2.50       0    281. 0.565  93.3
##  5 2004-01-01 02:00:00 2004-01-01 02:30:00 -2.72       0    281. 0.571  93.3
##  6 2004-01-01 02:30:00 2004-01-01 03:00:00 -2.94       0    281. 0.577  93.3
##  7 2004-01-01 03:00:00 2004-01-01 03:30:00 -3.17       0    281. 0.584  93.2
##  8 2004-01-01 03:30:00 2004-01-01 04:00:00 -3.39       0    281. 0.59   93.2
##  9 2004-01-01 04:00:00 2004-01-01 04:30:00 -3.61       0    264. 0.596  93.2
## 10 2004-01-01 04:30:00 2004-01-01 05:00:00 -3.59       0    264. 0.606  93.2
## # … with 192,854 more rows, and 58 more variables: P_F <dbl>, WS_F <dbl>,
## #   CO2_F_MDS <dbl>, PPFD_IN <dbl>, GPP_NT_VUT_REF <dbl>, SWC_F_MDS_1 <dbl>,
## #   SWC_F_MDS_2 <dbl>, SWC_F_MDS_3 <dbl>, SWC_F_MDS_4 <dbl>,
## #   SWC_F_MDS_1_QC <dbl>, SWC_F_MDS_2_QC <dbl>, SWC_F_MDS_3_QC <dbl>,
## #   SWC_F_MDS_4_QC <dbl>, NEE_VUT_REF_QC <dbl>, WS <dbl>, WD <dbl>,
## #   USTAR <dbl>, RH <dbl>, TA_F_MDS_QC <dbl>, TA_F_QC <dbl>,
## #   SW_IN_F_MDS_QC <dbl>, SW_IN_F_QC <dbl>, LW_IN_F_MDS_QC <dbl>,
## #   LW_IN_F_QC <dbl>, VPD_F_MDS_QC <dbl>, VPD_F_QC <dbl>, PA_F_QC <dbl>,
## #   P_F_QC <dbl>, WS_F_QC <dbl>, CO2_F_MDS_QC <dbl>, TS_F_MDS_1_QC <dbl>,
…
mean(c(1,2,NA), na.rm = TRUE)

## [1] 1.5

For cases where we don’t want to drop entire rows, but just replace certain values with NA, we can use mutate() instead and apply the function ifelse() which takes a logical expression that evaluates to either TRUE or FALSE as the first argument, and returns the second argument if the expression evaluates to TRUE or the third argument if it evaluates to FALSE. In our case, we can do:

hhdf %>% 
  mutate(GPP_NT_VUT_REF = ifelse(NEE_VUT_REF_QC %in% c(0,1), GPP_NT_VUT_REF, NA))

Some values in our data frame are -9999. When reading the documentation of the dataset, we learn that this is the code for missing data. We can replace such values in any column (except the columns starting with "TIMESTAMP_") with NA using the handy function na_if().

hhdf %>% 
  na_if(-9999)

## # A tibble: 192,864 x 65
##    TIMESTAMP_START TIMESTAMP_END  TA_F SW_IN_F LW_IN_F VPD_F  PA_F   P_F  WS_F
##              <dbl>         <dbl> <dbl>   <dbl>   <dbl> <dbl> <dbl> <dbl> <dbl>
##  1    200401010000  200401010030 -2.22       0    304. 0.562  93.3 0.014  2.2 
##  2    200401010030  200401010100 -2.25       0    304. 0.56   93.3 0.014  2.13
##  3    200401010100  200401010130 -2.28       0    281. 0.558  93.3 0      2.06
##  4    200401010130  200401010200 -2.50       0    281. 0.565  93.3 0      1.96
##  5    200401010200  200401010230 -2.72       0    281. 0.571  93.3 0      1.85
##  6    200401010230  200401010300 -2.94       0    281. 0.577  93.3 0      1.75
##  7    200401010300  200401010330 -3.17       0    281. 0.584  93.2 0      1.64
##  8    200401010330  200401010400 -3.39       0    281. 0.59   93.2 0      1.54
##  9    200401010400  200401010430 -3.61       0    264. 0.596  93.2 0      1.43
## 10    200401010430  200401010500 -3.59       0    264. 0.606  93.2 0      1.41
## # … with 192,854 more rows, and 56 more variables: CO2_F_MDS <dbl>,
## #   PPFD_IN <dbl>, GPP_NT_VUT_REF <dbl>, SWC_F_MDS_1 <dbl>, SWC_F_MDS_2 <dbl>,
## #   SWC_F_MDS_3 <dbl>, SWC_F_MDS_4 <dbl>, SWC_F_MDS_1_QC <dbl>,
## #   SWC_F_MDS_2_QC <dbl>, SWC_F_MDS_3_QC <dbl>, SWC_F_MDS_4_QC <dbl>,
## #   NEE_VUT_REF_QC <dbl>, WS <dbl>, WD <dbl>, USTAR <dbl>, RH <dbl>,
## #   TA_F_MDS_QC <dbl>, TA_F_QC <dbl>, SW_IN_F_MDS_QC <dbl>, SW_IN_F_QC <dbl>,
## #   LW_IN_F_MDS_QC <dbl>, LW_IN_F_QC <dbl>, VPD_F_MDS_QC <dbl>, VPD_F_QC <dbl>,
## #   PA_F_QC <dbl>, P_F_QC <dbl>, WS_F_QC <dbl>, CO2_F_MDS_QC <dbl>,
## #   TS_F_MDS_1_QC <dbl>, TS_F_MDS_2_QC <dbl>, TS_F_MDS_3_QC <dbl>,
…
map_dbl() is a variant of the map() function that returns not a list, but a vector of numeric values of class “double” (hence, the name _dbl). Note further, that providing a character ("r.squared") as an argument instead of an (unquoted) function name, map() extracts the correspondingly named list element, instead of applying a function to a list element.

When writing code for an analysis, it’s useful, if not essential, to understand the objects we’re working with and make sense of the results of simple print <object> statements. Data frames are particularly handy as they provide an organisation of data that is particularly intuitive (variables along columns, observations along rows, values in cells). We’ve encountered such data frames above. Here, we’re dealing with a list of linear model objects. Can such a list fit into the tidy paradigm?

Yes, they can. Think of the linear model objects as ‘values.’ Values don’t necessarily have to be scalars, but they can be of any type (class).

tibble(
  siteid = vec_sites,
  linmod = list_linmod
  )

## # A tibble: 35 x 2
##    siteid linmod      
##    <chr>  <named list>
##  1 LSET_D <lm>        
##  2 LSET_D <lm>        
##  3 LSET_D <lm>        
##  4 LSET_D <lm>        
##  5 LSET_D <lm>        
##  6 LSET_D <lm>        
##  7 LSET_D <lm>        
##  8 LSET_D <lm>        
##  9 LSET_D <lm>        
## 10 LSET_D <lm>        
## # … with 25 more rows

The fact that cells can contain any type of object offers a powerful concept. Instead of a linear model object as in the example above, each cell may also contain another data frame. In such a case, we say that the data frame is no longer flat, but nested.

The following creates a nested data frame, where the column data is defined by the list of data frames read from files above (list_df).

tibble(
  siteid = vec_sites,
  data = list_df
  )

## # A tibble: 35 x 2
##    siteid data                 
##    <chr>  <named list>         
##  1 LSET_D <tibble [6,940 × 13]>
##  2 LSET_D <tibble [4,018 × 13]>
##  3 LSET_D <tibble [6,940 × 13]>
##  4 LSET_D <tibble [3,652 × 13]>
##  5 LSET_D <tibble [6,574 × 13]>
##  6 LSET_D <tibble [3,652 × 13]>
##  7 LSET_D <tibble [4,018 × 13]>
##  8 LSET_D <tibble [2,557 × 13]>
##  9 LSET_D <tibble [4,018 × 13]>
## 10 LSET_D <tibble [3,287 × 13]>
## # … with 25 more rows
…
