Chapter 5 Catch-up | Environmental Systems Data Science
…
dat$films[[1]][3] # Accessing the third object in the list of the first entry

## [1] "Return of the Jedi"

5.5.2 Select()

select() is a straightforward to pick your varialbes (features) of interes. It can be used in various ways, even by adding functions and operators to its arguments.

# When doing selections and filters: Always save your data frame using "<-"
new_df <- dat %>% select(1:5)

## Specific
dat %>% select(1,2)                     # select by column number

## # A tibble: 87 x 2
##    name               height
##    <chr>               <int>
##  1 Luke Skywalker        172
##  2 C-3PO                 167
##  3 R2-D2                  96
##  4 Darth Vader           202
##  5 Leia Organa           150
##  6 Owen Lars             178
##  7 Beru Whitesun lars    165
##  8 R5-D4                  97
##  9 Biggs Darklighter     183
## 10 Obi-Wan Kenobi        182
## # … with 77 more rows

dat %>% select(2,1)                     # rearrange columns

## # A tibble: 87 x 2
##    height name              
##     <int> <chr>             
##  1    172 Luke Skywalker    
##  2    167 C-3PO             
##  3     96 R2-D2             
##  4    202 Darth Vader       
##  5    150 Leia Organa       
##  6    178 Owen Lars         
##  7    165 Beru Whitesun lars
##  8     97 R5-D4             
##  9    183 Biggs Darklighter 
## 10    182 Obi-Wan Kenobi    
## # … with 77 more rows

dat %>% select(name, height, starships) # select by names

## # A tibble: 87 x 3
##    name               height starships
##    <chr>               <int> <list>   
##  1 Luke Skywalker        172 <chr [2]>
##  2 C-3PO                 167 <chr [0]>
##  3 R2-D2                  96 <chr [0]>
##  4 Darth Vader           202 <chr [1]>
##  5 Leia Organa           150 <chr [0]>
##  6 Owen Lars             178 <chr [0]>
##  7 Beru Whitesun lars    165 <chr [0]>
##  8 R5-D4                  97 <chr [0]>
##  9 Biggs Darklighter     183 <chr [1]>
## 10 Obi-Wan Kenobi        182 <chr [5]>
## # … with 77 more rows

dat %>% select(H = height, N = name)    # renaming Variables

## # A tibble: 87 x 2
##        H N                 
##    <int> <chr>             
##  1   172 Luke Skywalker    
##  2   167 C-3PO             
##  3    96 R2-D2             
##  4   202 Darth Vader       
##  5   150 Leia Organa       
##  6   178 Owen Lars         
##  7   165 Beru Whitesun lars
##  8    97 R5-D4             
##  9   183 Biggs Darklighter 
## 10   182 Obi-Wan Kenobi    
## # … with 77 more rows

# Backwards
dat %>% select(tail(names(dat), 2))     # select the last two variables

## # A tibble: 87 x 2
##    vehicles  starships
##    <list>    <list>   
##  1 <chr [2]> <chr [2]>
##  2 <chr [0]> <chr [0]>
##  3 <chr [0]> <chr [0]>
##  4 <chr [0]> <chr [1]>
##  5 <chr [1]> <chr [0]>
##  6 <chr [0]> <chr [0]>
##  7 <chr [0]> <chr [0]>
##  8 <chr [0]> <chr [0]>
##  9 <chr [0]> <chr [1]>
## 10 <chr [1]> <chr [5]>
## # … with 77 more rows

## Deletion
dat %>% select(-name)                   # using a minus sign for deleting column name

## # A tibble: 87 x 13
##    height  mass hair_color    skin_color  eye_color birth_year sex    gender   
##     <int> <dbl> <chr>         <chr>       <chr>          <dbl> <chr>  <chr>    
##  1    172    77 blond         fair        blue            19   male   masculine
##  2    167    75 <NA>          gold        yellow         112   none   masculine
##  3     96    32 <NA>          white, blue red             33   none   masculine
##  4    202   136 none          white       yellow          41.9 male   masculine
##  5    150    49 brown         light       brown           19   female feminine 
##  6    178   120 brown, grey   light       blue            52   male   masculine
##  7    165    75 brown         light       blue            47   female feminine 
##  8     97    32 <NA>          white, red  red             NA   none   masculine
##  9    183    84 black         light       brown           24   male   masculine
## 10    182    77 auburn, white fair        blue-gray       57   male   masculine
## # … with 77 more rows, and 5 more variables: homeworld <chr>, species <chr>,
## #   films <list>, vehicles <list>, starships <list>

dat %>% select(-(1:4))                  # same as select((5:length(dat)))

## # A tibble: 87 x 10
##    skin_color eye_color birth_year sex   gender homeworld species films vehicles
##    <chr>      <chr>          <dbl> <chr> <chr>  <chr>     <chr>   <lis> <list>  
##  1 fair       blue            19   male  mascu… Tatooine  Human   <chr… <chr [2…
##  2 gold       yellow         112   none  mascu… Tatooine  Droid   <chr… <chr [0…
##  3 white, bl… red             33   none  mascu… Naboo     Droid   <chr… <chr [0…
##  4 white      yellow          41.9 male  mascu… Tatooine  Human   <chr… <chr [0…
##  5 light      brown           19   fema… femin… Alderaan  Human   <chr… <chr [1…
##  6 light      blue            52   male  mascu… Tatooine  Human   <chr… <chr [0…
##  7 light      blue            47   fema… femin… Tatooine  Human   <chr… <chr [0…
##  8 white, red red             NA   none  mascu… Tatooine  Droid   <chr… <chr [0…
##  9 light      brown           24   male  mascu… Tatooine  Human   <chr… <chr [0…
## 10 fair       blue-gray       57   male  mascu… Stewjon   Human   <chr… <chr [1…
## # … with 77 more rows, and 1 more variable: starships <list>

## Range
dat %>% select(1:4)                     # 1:4 is a vector from 1 to 4

## # A tibble: 87 x 4
##    name               height  mass hair_color   
##    <chr>               <int> <dbl> <chr>        
##  1 Luke Skywalker        172    77 blond        
##  2 C-3PO                 167    75 <NA>         
##  3 R2-D2                  96    32 <NA>         
##  4 Darth Vader           202   136 none         
##  5 Leia Organa           150    49 brown        
##  6 Owen Lars             178   120 brown, grey  
##  7 Beru Whitesun lars    165    75 brown        
##  8 R5-D4                  97    32 <NA>         
##  9 Biggs Darklighter     183    84 black        
## 10 Obi-Wan Kenobi        182    77 auburn, white
## # … with 77 more rows

dat %>% select(seq(1, length(dat), 2))  # seq() creates a sequence; selects every 2nd column

## # A tibble: 87 x 7
##    name                mass skin_color  birth_year gender    species vehicles 
##    <chr>              <dbl> <chr>            <dbl> <chr>     <chr>   <list>   
##  1 Luke Skywalker        77 fair              19   masculine Human   <chr [2]>
##  2 C-3PO                 75 gold             112   masculine Droid   <chr [0]>
##  3 R2-D2                 32 white, blue       33   masculine Droid   <chr [0]>
##  4 Darth Vader          136 white             41.9 masculine Human   <chr [0]>
##  5 Leia Organa           49 light             19   feminine  Human   <chr [1]>
##  6 Owen Lars            120 light             52   masculine Human   <chr [0]>
##  7 Beru Whitesun lars    75 light             47   feminine  Human   <chr [0]>
##  8 R5-D4                 32 white, red        NA   masculine Droid   <chr [0]>
##  9 Biggs Darklighter     84 light             24   masculine Human   <chr [0]>
## 10 Obi-Wan Kenobi        77 fair              57   masculine Human   <chr [1]>
## # … with 77 more rows

Advanced: Using selection helpers (additional functions). More examples can be found here.

dat %>% select(where(is.numeric))

## # A tibble: 87 x 3
##    height  mass birth_year
##     <int> <dbl>      <dbl>
##  1    172    77       19  
##  2    167    75      112  
##  3     96    32       33  
##  4    202   136       41.9
##  5    150    49       19  
##  6    178   120       52  
##  7    165    75       47  
##  8     97    32       NA  
##  9    183    84       24  
## 10    182    77       57  
## # … with 77 more rows

dat %>% select(last_col(0:2))           # Last 3 columns

## # A tibble: 87 x 3
##    starships vehicles  films    
##    <list>    <list>    <list>   
##  1 <chr [2]> <chr [2]> <chr [5]>
##  2 <chr [0]> <chr [0]> <chr [6]>
##  3 <chr [0]> <chr [0]> <chr [7]>
##  4 <chr [1]> <chr [0]> <chr [4]>
##  5 <chr [0]> <chr [1]> <chr [5]>
##  6 <chr [0]> <chr [0]> <chr [3]>
##  7 <chr [0]> <chr [0]> <chr [3]>
##  8 <chr [0]> <chr [0]> <chr [1]>
##  9 <chr [1]> <chr [0]> <chr [1]>
## 10 <chr [5]> <chr [1]> <chr [6]>
## # … with 77 more rows

dat %>% select(last_col(2:0))           # Careful last_col() inedexes last column as 0

## # A tibble: 87 x 3
##    films     vehicles  starships
##    <list>    <list>    <list>   
##  1 <chr [5]> <chr [2]> <chr [2]>
##  2 <chr [6]> <chr [0]> <chr [0]>
##  3 <chr [7]> <chr [0]> <chr [0]>
##  4 <chr [4]> <chr [0]> <chr [1]>
##  5 <chr [5]> <chr [1]> <chr [0]>
##  6 <chr [3]> <chr [0]> <chr [0]>
##  7 <chr [3]> <chr [0]> <chr [0]>
##  8 <chr [1]> <chr [0]> <chr [0]>
##  9 <chr [1]> <chr [0]> <chr [1]>
## 10 <chr [6]> <chr [1]> <chr [5]>
## # … with 77 more rows

dat %>% select(starts_with("h"))        # Selects all variables that start with an "h"

## # A tibble: 87 x 3
##    height hair_color    homeworld
##     <int> <chr>         <chr>    
##  1    172 blond         Tatooine 
##  2    167 <NA>          Tatooine 
##  3     96 <NA>          Naboo    
##  4    202 none          Tatooine 
##  5    150 brown         Alderaan 
##  6    178 brown, grey   Tatooine 
##  7    165 brown         Tatooine 
##  8     97 <NA>          Tatooine 
##  9    183 black         Tatooine 
## 10    182 auburn, white Stewjon  
## # … with 77 more rows

dat %>% select(ends_with("color"))      # Selects all variables that end with "color"

## # A tibble: 87 x 3
##    hair_color    skin_color  eye_color
##    <chr>         <chr>       <chr>    
##  1 blond         fair        blue     
##  2 <NA>          gold        yellow   
##  3 <NA>          white, blue red      
##  4 none          white       yellow   
##  5 brown         light       brown    
##  6 brown, grey   light       blue     
##  7 brown         light       blue     
##  8 <NA>          white, red  red      
##  9 black         light       brown    
## 10 auburn, white fair        blue-gray
## # … with 77 more rows

dat %>% select(contains("_"))

## # A tibble: 87 x 4
##    hair_color    skin_color  eye_color birth_year
##    <chr>         <chr>       <chr>          <dbl>
##  1 blond         fair        blue            19  
##  2 <NA>          gold        yellow         112  
##  3 <NA>          white, blue red             33  
##  4 none          white       yellow          41.9
##  5 brown         light       brown           19  
##  6 brown, grey   light       blue            52  
##  7 brown         light       blue            47  
##  8 <NA>          white, red  red             NA  
##  9 black         light       brown           24  
## 10 auburn, white fair        blue-gray       57  
## # … with 77 more rows

dat %>% select(matches("height"))       # Same as select(height)

## # A tibble: 87 x 1
##    height
##     <int>
##  1    172
##  2    167
##  3     96
##  4    202
##  5    150
##  6    178
##  7    165
##  8     97
##  9    183
## 10    182
## # … with 77 more rows

dat %>% select(-any_of(ends_with("color"))) # Delete any variables that end with "color". Note that any_of can only be used within select()!

## # A tibble: 87 x 11
##    name    height  mass birth_year sex   gender homeworld species films vehicles
##    <chr>    <int> <dbl>      <dbl> <chr> <chr>  <chr>     <chr>   <lis> <list>  
##  1 Luke S…    172    77       19   male  mascu… Tatooine  Human   <chr… <chr [2…
##  2 C-3PO      167    75      112   none  mascu… Tatooine  Droid   <chr… <chr [0…
##  3 R2-D2       96    32       33   none  mascu… Naboo     Droid   <chr… <chr [0…
##  4 Darth …    202   136       41.9 male  mascu… Tatooine  Human   <chr… <chr [0…
##  5 Leia O…    150    49       19   fema… femin… Alderaan  Human   <chr… <chr [1…
##  6 Owen L…    178   120       52   male  mascu… Tatooine  Human   <chr… <chr [0…
##  7 Beru W…    165    75       47   fema… femin… Tatooine  Human   <chr… <chr [0…
##  8 R5-D4       97    32       NA   none  mascu… Tatooine  Droid   <chr… <chr [0…
##  9 Biggs …    183    84       24   male  mascu… Tatooine  Human   <chr… <chr [0…
## 10 Obi-Wa…    182    77       57   male  mascu… Stewjon   Human   <chr… <chr [1…
## # … with 77 more rows, and 1 more variable: starships <list>

#  (Using conditions is rarely meaningful...)
dat %>% select(1:4 | length(dat))           # Select columns one to for "or" the last one

## # A tibble: 87 x 5
##    name               height  mass hair_color    starships
##    <chr>               <int> <dbl> <chr>         <list>   
##  1 Luke Skywalker        172    77 blond         <chr [2]>
##  2 C-3PO                 167    75 <NA>          <chr [0]>
##  3 R2-D2                  96    32 <NA>          <chr [0]>
##  4 Darth Vader           202   136 none          <chr [1]>
##  5 Leia Organa           150    49 brown         <chr [0]>
##  6 Owen Lars             178   120 brown, grey   <chr [0]>
##  7 Beru Whitesun lars    165    75 brown         <chr [0]>
##  8 R5-D4                  97    32 <NA>          <chr [0]>
##  9 Biggs Darklighter     183    84 black         <chr [1]>
## 10 Obi-Wan Kenobi        182    77 auburn, white <chr [5]>
## # … with 77 more rows

dat %>% select(1:4 & (starts_with("h")))    # Select cols 1:4 and all which start with "h"

## # A tibble: 87 x 2
##    height hair_color   
##     <int> <chr>        
##  1    172 blond        
##  2    167 <NA>         
##  3     96 <NA>         
##  4    202 none         
##  5    150 brown        
##  6    178 brown, grey  
##  7    165 brown        
##  8     97 <NA>         
##  9    183 black        
## 10    182 auburn, white
## # … with 77 more rows
…
Equal or Smaller
>=
NOT a
!a

# Reducing data for comprehensive output
dat1 <- dat %>% select(1:8)

# Numeric Criteria
dat1 %>% filter(height > 100)                # Entries with height above 100

## # A tibble: 74 x 8
##    name          height  mass hair_color   skin_color eye_color birth_year sex  
##    <chr>          <int> <dbl> <chr>        <chr>      <chr>          <dbl> <chr>
##  1 Luke Skywalk…    172    77 blond        fair       blue            19   male 
##  2 C-3PO            167    75 <NA>         gold       yellow         112   none 
##  3 Darth Vader      202   136 none         white      yellow          41.9 male 
##  4 Leia Organa      150    49 brown        light      brown           19   fema…
##  5 Owen Lars        178   120 brown, grey  light      blue            52   male 
##  6 Beru Whitesu…    165    75 brown        light      blue            47   fema…
##  7 Biggs Darkli…    183    84 black        light      brown           24   male 
##  8 Obi-Wan Keno…    182    77 auburn, whi… fair       blue-gray       57   male 
##  9 Anakin Skywa…    188    84 blond        fair       blue            41.9 male 
## 10 Wilhuff Tark…    180    NA auburn, grey fair       blue            64   male 
## # … with 64 more rows
…
# Character Criteria
dat1 %>% filter(eye_color == "red")          # Entries with red eyes

## # A tibble: 5 x 8
##   name        height  mass hair_color skin_color    eye_color birth_year sex  
##   <chr>        <int> <dbl> <chr>      <chr>         <chr>          <dbl> <chr>
## 1 R2-D2           96    32 <NA>       white, blue   red               33 none 
## 2 R5-D4           97    32 <NA>       white, red    red               NA none 
## 3 IG-88          200   140 none       metal         red               15 none 
## 4 Bossk          190   113 none       green         red               53 male 
## 5 Nute Gunray    191    90 none       mottled green red               NA male

dat1 %>% filter(eye_color != "red")          # Entries without red eyes

## # A tibble: 82 x 8
##    name          height  mass hair_color   skin_color eye_color birth_year sex  
##    <chr>          <int> <dbl> <chr>        <chr>      <chr>          <dbl> <chr>
##  1 Luke Skywalk…    172    77 blond        fair       blue            19   male 
##  2 C-3PO            167    75 <NA>         gold       yellow         112   none 
##  3 Darth Vader      202   136 none         white      yellow          41.9 male 
##  4 Leia Organa      150    49 brown        light      brown           19   fema…
##  5 Owen Lars        178   120 brown, grey  light      blue            52   male 
##  6 Beru Whitesu…    165    75 brown        light      blue            47   fema…
##  7 Biggs Darkli…    183    84 black        light      brown           24   male 
##  8 Obi-Wan Keno…    182    77 auburn, whi… fair       blue-gray       57   male 
##  9 Anakin Skywa…    188    84 blond        fair       blue            41.9 male 
## 10 Wilhuff Tark…    180    NA auburn, grey fair       blue            64   male 
## # … with 72 more rows

dat1 %>% filter(!(eye_color == "red"))       # Entries without red eyes

## # A tibble: 82 x 8
##    name          height  mass hair_color   skin_color eye_color birth_year sex  
##    <chr>          <int> <dbl> <chr>        <chr>      <chr>          <dbl> <chr>
##  1 Luke Skywalk…    172    77 blond        fair       blue            19   male 
##  2 C-3PO            167    75 <NA>         gold       yellow         112   none 
##  3 Darth Vader      202   136 none         white      yellow          41.9 male 
##  4 Leia Organa      150    49 brown        light      brown           19   fema…
##  5 Owen Lars        178   120 brown, grey  light      blue            52   male 
##  6 Beru Whitesu…    165    75 brown        light      blue            47   fema…
##  7 Biggs Darkli…    183    84 black        light      brown           24   male 
##  8 Obi-Wan Keno…    182    77 auburn, whi… fair       blue-gray       57   male 
##  9 Anakin Skywa…    188    84 blond        fair       blue            41.9 male 
## 10 Wilhuff Tark…    180    NA auburn, grey fair       blue            64   male 
## # … with 72 more rows

# NA's
dat1 %>% drop_na                             # Removes all entries with at least 1 NA

## # A tibble: 32 x 8
##    name          height  mass hair_color   skin_color eye_color birth_year sex  
##    <chr>          <int> <dbl> <chr>        <chr>      <chr>          <dbl> <chr>
##  1 Luke Skywalk…    172    77 blond        fair       blue            19   male 
##  2 Darth Vader      202   136 none         white      yellow          41.9 male 
##  3 Leia Organa      150    49 brown        light      brown           19   fema…
##  4 Owen Lars        178   120 brown, grey  light      blue            52   male 
##  5 Beru Whitesu…    165    75 brown        light      blue            47   fema…
##  6 Biggs Darkli…    183    84 black        light      brown           24   male 
##  7 Obi-Wan Keno…    182    77 auburn, whi… fair       blue-gray       57   male 
##  8 Anakin Skywa…    188    84 blond        fair       blue            41.9 male 
##  9 Chewbacca        228   112 brown        unknown    blue           200   male 
## 10 Han Solo         180    80 brown        fair       brown           29   male 
## # … with 22 more rows
…
