Chapter 1 Primers | Environmental Systems Data Science
…
Now, let’s get our hands on actual data for demonstrating how data is read and written. As most of the code displayed in this book, the code chunks below are executable. You can try it out by opening the the book’s R project in RStudio.

We are going to work with data from ecosystem flux measurements, taken by the eddy covariance technique, and provided as part of the FLUXNET2015 dataset (Pastorello et al. 2020) see. The data we’re using below comes from a flux tower near Zürich (CH-Lae, located on the Laegern mountain between Regensberg and Baden and run by our colleagues here at ETH).

The data is stored as a Comma Separated Values file (.csv). This is a plain-text, and therefore a non-proprietary format. To follow the FAIR data principles, distribute your data in a format that is non-proprietary and readable across platforms and applications. For example, avoid distributing your data as an Excel spreadsheat (.xlsx), or a Matlab data object (.mat), or an R data object (.RData, or .rds).

1.2.9.1 Reading data

To import the data into the R workspace (environment), we use the function read_csv() from the tidyverse package. In other R code, you will also encounter the base R read.csv() function. However, read_csv() is much faster and reads data into a tidyverse-data frame (a tibble) which has some useful additional characteristics, on top of a common R data frame. To tell the function where the data is located, pass the data’s path as an argument. You can either use an absolute path, starting from C:/ on a Windows computer or ~/ on a Mac or Linux. Or, alternatively, you can provide a relative path, where ./ points to the present working directory and ../ is one level up, or ../../ is two levels up, etc.

# use a relative path to read the data
df <- read_csv("./data/FLX_CH-Lae_FLUXNET2015_FULLSET_DD_2004-2014_1-3.csv")
print(df) # to print an overview of the data frame

## # A tibble: 4,018 × 334
##    TIMESTAMP TA_F_MDS TA_F_MDS_QC TA_F_MDS_NIGHT TA_F_MDS_NIGHT_SD
##        <dbl>    <dbl>       <dbl>          <dbl>             <dbl>
##  1  20040101    -9999       -9999          -9999             -9999
##  2  20040102    -9999       -9999          -9999             -9999
##  3  20040103    -9999       -9999          -9999             -9999
##  4  20040104    -9999       -9999          -9999             -9999
##  5  20040105    -9999       -9999          -9999             -9999
##  6  20040106    -9999       -9999          -9999             -9999
##  7  20040107    -9999       -9999          -9999             -9999
##  8  20040108    -9999       -9999          -9999             -9999
##  9  20040109    -9999       -9999          -9999             -9999
## 10  20040110    -9999       -9999          -9999             -9999
## # … with 4,008 more rows, and 329 more variables: TA_F_MDS_NIGHT_QC <dbl>,
## #   TA_F_MDS_DAY <dbl>, TA_F_MDS_DAY_SD <dbl>, TA_F_MDS_DAY_QC <dbl>,
## #   TA_ERA <dbl>, TA_ERA_NIGHT <dbl>, TA_ERA_NIGHT_SD <dbl>, TA_ERA_DAY <dbl>,
## #   TA_ERA_DAY_SD <dbl>, TA_F <dbl>, TA_F_QC <dbl>, TA_F_NIGHT <dbl>,
## #   TA_F_NIGHT_SD <dbl>, TA_F_NIGHT_QC <dbl>, TA_F_DAY <dbl>,
## #   TA_F_DAY_SD <dbl>, TA_F_DAY_QC <dbl>, SW_IN_POT <dbl>, SW_IN_F_MDS <dbl>,
## #   SW_IN_F_MDS_QC <dbl>, SW_IN_ERA <dbl>, SW_IN_F <dbl>, SW_IN_F_QC <dbl>, …
…
df is a data frame. This is similar to a matrix and has two dimensions (rows and columns). If we want to extract specific data from it, we specify the indices, i.e. the “coordinates”, of the data. For two-dimensional objects (data frames, matrices), the first index refers to rows and the second to columns. For example, to refer to the element on the third row in the first column, we write:

df[3,1]

## # A tibble: 1 × 1
##   TIMESTAMP
##       <dbl>
## 1  20040103

Reducing a data frame (tibble) to only the first columns can be done by:

df[, 1]

## # A tibble: 4,018 × 1
##    TIMESTAMP
##        <dbl>
##  1  20040101
##  2  20040102
##  3  20040103
##  4  20040104
##  5  20040105
##  6  20040106
##  7  20040107
##  8  20040108
##  9  20040109
## 10  20040110
## # … with 4,008 more rows
…
df[1:3, 3] # reduces the data frame (tibble) to its first three rows and the 3rd column

## # A tibble: 3 × 1
##   TA_F_MDS_QC
##         <dbl>
## 1       -9999
## 2       -9999
## 3       -9999

To reduce the data frame (tibble) to several columns, the function c() is used. c() stands for concatenate, which means to link together in a series or chain. This outputs the data frame (tibble) reduced to the selected row or column numbers inside c().

df[, c(1,4,7)]

## # A tibble: 4,018 × 3
##    TIMESTAMP TA_F_MDS_NIGHT TA_F_MDS_DAY
##        <dbl>          <dbl>        <dbl>
##  1  20040101          -9999        -9999
##  2  20040102          -9999        -9999
##  3  20040103          -9999        -9999
##  4  20040104          -9999        -9999
##  5  20040105          -9999        -9999
##  6  20040106          -9999        -9999
##  7  20040107          -9999        -9999
##  8  20040108          -9999        -9999
##  9  20040109          -9999        -9999
## 10  20040110          -9999        -9999
## # … with 4,008 more rows

Another method is to select the columns by column names, i.e. giving as input a string vector with the name of each column we want to select (again, this is Base R notation). This is especially useful if the columns we want to select are not contiguous. For example:

# Selecting data by name in base R  ================================
df[,c("TIMESTAMP", "TA_F_MDS", "TA_F_MDS_QC")]

## # A tibble: 4,018 × 3
##    TIMESTAMP TA_F_MDS TA_F_MDS_QC
##        <dbl>    <dbl>       <dbl>
##  1  20040101    -9999       -9999
##  2  20040102    -9999       -9999
##  3  20040103    -9999       -9999
##  4  20040104    -9999       -9999
##  5  20040105    -9999       -9999
##  6  20040106    -9999       -9999
##  7  20040107    -9999       -9999
##  8  20040108    -9999       -9999
##  9  20040109    -9999       -9999
## 10  20040110    -9999       -9999
## # … with 4,008 more rows

In Chapter 2 of this tutorial tutorial, we will use the tidyverse, which is a set of R packages designed for working with tidy data and writing code in such a way as to emphasize and better understand the “workflow aspect” of it. A code chunk which does the same as above, but is written for the tidyverse can read as follows.

select(df, 1) # reduces the data frame (tibble) to its first column

## # A tibble: 4,018 × 1
##    TIMESTAMP
##        <dbl>
##  1  20040101
##  2  20040102
##  3  20040103
##  4  20040104
##  5  20040105
##  6  20040106
##  7  20040107
##  8  20040108
##  9  20040109
## 10  20040110
## # … with 4,008 more rows

select(df, TIMESTAMP, TA_F_MDS, TA_F_MDS_QC)  # reduces the data frame to columns specified by names

## # A tibble: 4,018 × 3
##    TIMESTAMP TA_F_MDS TA_F_MDS_QC
##        <dbl>    <dbl>       <dbl>
##  1  20040101    -9999       -9999
##  2  20040102    -9999       -9999
##  3  20040103    -9999       -9999
##  4  20040104    -9999       -9999
##  5  20040105    -9999       -9999
##  6  20040106    -9999       -9999
##  7  20040107    -9999       -9999
##  8  20040108    -9999       -9999
##  9  20040109    -9999       -9999
## 10  20040110    -9999       -9999
## # … with 4,008 more rows

As a further shortcut in tidyverse, we can use the pipe %>% operator. The data frame is still reduced to its first column:

df %>% select(1)

## # A tibble: 4,018 × 1
##    TIMESTAMP
##        <dbl>
##  1  20040101
##  2  20040102
##  3  20040103
##  4  20040104
##  5  20040105
##  6  20040106
##  7  20040107
##  8  20040108
##  9  20040109
## 10  20040110
## # … with 4,008 more rows
…
